Version 8.5.0
Id 
Min label:0
Max label:5.99199e+06
bits:18
lda:0
0 ngram:
0 skip:
options: --quadratic nn
Checksum: 208503964
:0
114839:-3.04533
114912:0.984083
114919:1.53182
114922:2.29835
114923:1.1539
114984:-0.214506
114985:-0.831741
114986:-3.12165
114987:-0.0836866
115027:-0.957096
115030:1.89574
115031:6.42257
115032:-0.407639
115033:-4.47244
115034:2.71503
115036:-0.637492
115037:2.14787
115038:-1.13123
115039:-0.879267
115645:-5.02373
115646:1.42156
115648:6.1373
115649:1.35917
115652:-9.95865
115655:0.105753
115656:-0.85315
115658:2.10652
115661:1.56233
115666:-2.10329
116060:-66358.9
116128:3.22148
116129:1.6809
116132:6.76763
116133:4.11237
116134:2.58364
116135:7.87818
116136:1.54212
116137:2.33022
116138:6.69314
116139:1.84006
116140:8.54086
116141:11.6246
116142:4.12191
116143:1.60314
116177:1.96538
116178:2.24714
116179:1.19078
116180:0.10885
116240:-1.88483
116244:1.03841
116254:1.63453
116255:0.99477
116323:-3.3571
121005:-416.996
121006:-543.253
121007:-206.761
121008:1411.08
121009:-351.304
121010:-721.228
121011:-1116.32
121012:-526.968
121013:-620.886
121014:-563.118
121015:1446.89
121016:-332.967
121017:-452.392
121018:744.253
121019:-453.679
121020:1285.67
121021:1654.5
121022:260.997
121023:-357.963
121024:-1083.33
121025:-531.647
121026:-465.72
121027:-325.857
121028:-262.878
123298:0.00623158
123453:-0.179171
125240:2.36586
125241:5.68691
125242:7.42799
125251:6.27767
125252:1.53348
125253:2.56142
125254:4.48308
126061:-2.07128
126062:-0.320253
126592:-1.42342
126593:-4.8736
126594:-4.75324
126595:-4.33079
126737:-1.06891
127138:4.89331
127144:14.3659
127145:5.47885
127147:3.96455
127148:4.11395
127149:0.943615
127150:0.923649
127151:8.16938
127188:2.75687
127190:1.67367
127191:3.60232
127252:1.909
127253:2.96242
127336:-4.37065
127872:-0.512734
127876:-1.23191
127878:6.17912
127879:3.7234
127992:-0.29292
127994:-0.558521
127995:-5.67679
128012:0.307846
128112:2.53608
128114:5.73246
128115:11.0982
128116:1.90695
128673:-1.75628
128732:2.91377
128733:1.56756
128816:1.03685
128821:3.96707
128822:2.41201
128823:1.29315
128840:0.870975
128841:10.2253
128842:3.38749
128843:1.61229
129152:-0.586025
129154:-1.38844
129155:-1.09572
129157:-4.20372
129162:0.941932
129163:0.586002
129167:-0.100169
129268:-1.11463
129270:-3.80762
129271:-0.9272
129288:-4.73513
129289:-10.4881
129290:-0.123994
129291:-6.75285
129293:-4.81172
129393:-3.43814
129394:-3.34506
129396:1.8535
129398:-1.54751
129402:-2.43988
129404:-6.77804
129405:-4.11697
129407:-2.81741
129948:-8.44542
129950:-0.459999
130016:4.13798
130017:8.62973
130021:-0.539564
130023:-0.136012
130024:-0.289509
130025:-2.90688
130026:-0.701411
130027:4.83785
130091:-0.088987
130093:-1.22054
130095:-4.76169
130128:-0.468969
130130:4.21111
130131:4.47497
130134:-0.872975
130136:1.32279
130137:-0.529975
130613:2.31069
130622:2.10005
130623:3.58817
130626:-4.82884
130627:-0.686035
